1 1 1
847219 788271 525
100113 745528 509
956385 56634 525
352621 388676 423
21629 532777 470
240507 252653 368
382655 240862 441
611139 161495 470
99862 623643 470
407773 296843 441
971665 798088 525
36798 415220 449
988065 517189 525
873016 636301 525
801431 135503 509
979228 284832 525
673485 819979 504
449831 698385 509
570576 686526 509
430328 946404 525
648616 894917 525
694741 874551 525
102122 161299 383
409331 391517 405
263831 998041 525
500593 834102 509
126803 821096 509
428054 703362 509
875429 907302 445
604986 79948 470
877201 253117 525
963829 893179 507
272504 720157 509
916342 413781 525
903388 491990 525
11551 107243 354
430301 734851 509
970173 646020 525
642501 946494 525
354545 257443 441
55533 790957 509
323741 86406 443
535247 74065 470
657723 58700 509
614671 193600 470
886317 453989 525
565906 532028 452
971133 202761 525
442471 619089 470
472467 534748 470
411007 335073 449
836973 56981 509
136680 719916 509
324130 185544 443
292060 942387 525
612995 462544 470
145881 908060 525
864959 771317 525
329817 508864 449
286091 695036 509
831314 100096 509
305651 295818 371
395757 471656 449
673585 397076 509
65850 677366 509
293057 359632 441
674465 259779 509
593529 445761 470
274171 87286 443
402723 355336 436
721600 158457 509
518047 329812 470
685959 995987 525
682183 596672 509
629094 287134 509
22631 726227 509
654422 307918 509
123161 536769 470
393918 540312 470
334386 908724 525
752225 557996 509
214081 436205 449
316167 524092 470
619312 6841 470
679733 966446 525
916269 349182 525
925269 471354 525
459577 324460 449
247494 199225 443
683993 85137 509
836482 207547 509
459112 250836 449
997411 121602 525
33690 692162 509
598831 485863 470
932671 658706 525
618680 24133 470
771921 907070 525
710517 326229 509