1 10 20
100 200 125
201 210 89
900 1000 174
1 999999 525
10 1 20
500 1000 179
501 1000 179
499 1000 179
500000 999999 525
480000 999999 525
1000 500 179
1000 501 179
1000 499 179
1 2 2
999998 999999 259
2 2 2
450311 737567 509
86548 774725 509
696900 229903 509
510776 99161 449
915507 981120 507
326770 888864 525
373473 149855 443
960897 110146 525
684273 386085 509
593409 125213 470
501485 724748 509
347081 163222 443
788230 363335 509
956225 850651 507
427860 591840 470
809814 470127 509
263207 382964 441
808140 680418 504
475205 356177 449
108423 866559 525
916971 30297 525
341229 421126 449
741474 449953 509
882571 939007 476
221533 294628 443
493295 113066 449
280007 877214 525
513894 852786 525
291674 873254 525
15243 996883 525
564860 903149 525
329823 928841 525
950707 73395 525
824050 984101 525
574194 503516 470
99116 255369 443
889828 749268 525
57596 751024 509
625707 835213 509
65217 956471 525
436149 357993 449
847585 275261 525
559382 294661 470
244958 568147 470
618054 976574 525
832191 197315 509
556445 458652 470
139 148396 375
728485 130990 509
72617 15972 340
176349 486027 449
873920 492788 525
211300 758582 509
516821 258509 470
237972 48011 443
762786 659575 504
234727 983711 525
114993 738802 509
853133 83141 525
455700 707220 509
356857 499062 449
288719 659794 509
909635 11519 525
678776 879786 525
26000 320300 443
107788 803620 509
312493 387929 441
755 623139 470
401039 414975 449
674521 325593 509
734100 61143 509
951746 891965 507
966989 280252 525
816640 481975 509
129410 87389 354
473947 776099 509
666255 101499 509
242410 907978 525
670992 289353 509
938948 581703 525
16231 864840 525
39896 525883 470
355133 908492 525
7908 510597 449
264646 496991 449
259507 524275 470
946836 449949 525
723807 666793 504
98317 454397 449
418403 586784 470
19590 897213 525
533852 810366 509
837972 425563 525
929225 509588 525
106965 903792 525
304316 158855 443
220867 811844 509
172656 31698 383
251434 845652 525
951917 842822 507
